0800f9995b53b173ecc165010000db020000110000000000000000000000
000012010000646f6350726f70732f636f72652e786d6c504b0102140014
0008080800f9995b534f92bc143901000026020000100000000000000000
0000000000b6020000646f6350726f70732f6170702e786d6c504b010214
00140008080800f9995b53f92f30c0c5000000130200001c000000000000
