0ca307c9051f95ab15ad2c0bc2d90d569d2d7c07006e1113605b98190463
1436aa8bd9476f4d5bec1d01b7bd16a3bf552d126965e0a25e4e3a8ad308
4514d530c516c8f80ce60a2ad39a98807b32b157bb05d984e90b56a73248
2726a58edce5119a82645f9223748318749ba3574bb10966476d65a820fc
807cf0f7cc441a0ff7d2ec6047354522ce29ab65f228b6bd5c37ad3aac0c
