7ff5bbefe6abd637d3402e29cce0e295bfd94cc15dc5a6a741c7b3c134c1
47dfa5b3c60f57beeb4c43e5dfa63c116e367d4ae3d5f97979e8b91fc9e1
5ee7c3a013be86fd797ee487f2aef3af2f2e5e9e07b23a41ded89b31aeb3
1dfed3fb0f835dc7cd5ff2d6d987760cbea118b11083cdef1db471c7692e
2fbe0030cf737c62fc9237b741cf0f5ef9b1203fe49ba719e367531ec578
