378f2135c1f60e9516dfa5ec9620b7fbf8da2b3aaea44f163e13e310dcdd
31e6f1361fe28b17c55bc518a91c1e3a522cd0ff26c44ee3da2f3cf90b50
4b0708def947e49002000041090000504b0304140008080800f9995b5300
000000000000000000000012000000776f72642f666f6e745461626c652e
786d6cad50414ec33010bcf30acb77eab40784a2a61512e2847aa0e5015b
