72642f7374796c65732e786d6c504b01021400140008080800f9995b53c1
c7d9081d0100005503000012000000000000000000000000007512000077
6f72642f666f6e745461626c652e786d6c504b01021400140008080800f9
995b539d84078cf10000006f0100001100000000000000000000000000d2
130000776f72642f73657474696e67732e786d6c504b0102140014000808
