54f4bcf2a8711e9a960779ce5a0217f30374279a03f89f0bbc190f1d8c04
0c86172a43d5ac91e22823104e3039ba6f684ceaed47d4ff5a8c93d5e548
6afdb4407f9541c2bab387e4283112b5068caca5013500c0a4a742f09135
7bc35505b350726ee14282753c98b6850870503673fc5bb8d591b81713b9
cc90b23a9b041cb6c2d209a54490d2c17a7fa7c0cf9d9a468033090e7a9b
