66e62ebbc6d10cc87bd5f520ee470a8690be6389f9f0b705f457cb2e6401
43cc4b80b335b1a18082035c447ad0a8f42b0364a2680441b1f15c98db45
32450e2abd0fe617cffbc45c0aa08a3af35da7e481412fa5ccd24b75674a
40a1c4d06467665f5a9f02331fe462b6efa6614741aed27d42bebb560bc9
4e466d554b369c26d38b1c13dd4ae26172cf2607840cb1a5b5891227185d
