0ad4647a8a52354a7a927c9a547adb8b5049b9ec1b32e6c22ea99f0010a9
f6d1333e991527a5930e80d830d8faa47b3fd45ebf64d73eeb627dc657f6
4abf978d57ac717e0cb05f623f9f9c3dc6cb8cf750eafddaed181e5bbf1e
f6c0e578e1b5edf2d6dfdc2725f826dbb5d2069765b954de6b495c43afa4
b160b00a82a89ae1335a1dcd2a886e05853010c7cae04eef92c1d36ad1c2
