25824ce4a37216c20ac35bd682c842c36b85d47262a626347b4b8dcd169a
6ce0e569c3a49de909b320b4d262deca06c0353029673841b363da646636
0cddaafa6a83848372dde9b23d1e7d69a5c058075fd2f92380eaa565f0b8
acc910988c7569a7e0cd187820f7e4cf708b379ee3dfb38fe3ec753f0392
eb5cfb98edf6853935fdb67ec0a2f5cd4e77a05ca379e398c49e6baa2b90
