6069069442670229ece72c5c1dc06cc7c3975056f4f31a1d772fa04cbc7f
eece1f648a19aa04fe24890f092fcd50a14e49db1ed4ece88fc0d628b00d
d647a33f2661057cc569615e2ccbc1e2eb907949bc8efe841176f922de46
724314bec85bbdb458f8385798c9421b976472a3d8c2b9b41ff22d410274
484fde3c2890128d0bcf1d585c2e91e41e4438362429204611c1361e1f47
