beb8da262bedfef5dc4a33e34441e8be80324b928757f3bdf40ec68c9798
7fa1e130cd724691f75274fd39a1fd1e9bdbdc570c1b6829f0677649d70a
bfa44b9ae767fb86686e3fb24f3171f54f8cabe9ce39318dd935bd032655
b840c2f5faa2ff7b44e333479dda3c3a0805db5bba63303bc03fc085f0f8
15c34b0dbf8be1fd4aa1f8acfc369c79a3ecc5f7cc0b3f594a340032f24c
