80ef7ffed93a8d283827d047222a63b05563201341d3c6d5b0c23b8c96eb
31c96af950b79ef72a78eaa7c2539c2e9ef0fd8fe752f554c7c8f18adc16
65ed1ec86da9051d4a6e493ffc187501edf587394da3cd80e8622a83fbb9
806cade453b4b62d81420eb4bf8a535d90ca8415319c651014a3a8e9168c
96b4b56d6639d44d95aac632d4dd065c004e81205faf179fe728a3d0352a
