3cc104bbd4a3c9c2cea8acb27c66b1ae242d5139a57eba99afe276c85250
1d85c9184cb63d323a4a50a6113360394c80f2177d3ebe45da995264ea1b
4610c33465fe246132da31f621810faed5a94c7acc85296e030e9cf80451
64d1636dea09ba9eb20dc247e3b75b57bb87b1d53d9d08948d357be44194
f3d155c17437e6f3f894720cd566b6b02e515a52142a2b84a7b6b2c39677
