edc961770bc0def28dee1c5d3bc7c86cb7407fc6ea4ba8bbd7607a361c68
e5b4953b9b270c2ab0f722e44d3dd351e2ba5ebb3f24f9035894e90ef408
a9abf8e2509a50eb12f3622d95c40adadba1c73814faaa27095cf6675785
006209ed9590e51cc9c943720c85ea9d2a30566447c25863de7bc523831d
21b5b912b2b50d136f2a349523ca4ceb091586cb647740466a16173880e8
