e2809c4e6f772c207065726861707320796f75e280996c6c206d656e7469
6f6e2077686174e280997320746865206d61747465722ce2809d20736169
64206d79207369737465722c206f7574206f66206272656174682c20e280
9c796f752073746172696e6720677265617420737475636b207069672ee2
809d0a
