49207768696d70657265642c20e2809c4920646f6ee2809974206b6e6f77
2ee2809d0a0ae2809c4920646f6ee280997421e2809d2073616964206d79
207369737465722e20e2809c49e2809964206e6576657220646f20697420
616761696e212049206b6e6f7720746861742e2049206d6179207472756c
79207361792049e280997665206e65766572206861642074686973206170
726f6e206f66206d696e65206f66662073696e636520626f726e20796f75
20776572652e204974e28099732062616420656e6f75676820746f206265
206120626c61636b736d697468e280997320776966652028616e64206869
6d206120476172676572792920776974686f7574206265696e6720796f75
72206d6f746865722ee2809d0a
